[
  {
    "_id": "1",
    "name": "Sweet Delights",
    "workingHours": "7:00 - 18:00",
    "logo": "/images/chocolate_15174343.png",
    "comments": [
      {
        "_id": "1_2",
        "user": "milica",
        "factory": "1",
        "text": "2 Dobra fabrika, lorem ipsum dolor sit amet",
        "grade": 4,
        "status": "Obrada"
      }
    ],
    "chocolates": [
      {
        "_id": "1_1",
        "_factoryId": "1",
        "name": "Čokolada Crna Premium",
        "price": 250,
        "weight": 150,
        "description": "Bogata i glatka tamna čokolada sa intenzivnim ukusom kakaa.",
        "image": "/images/cokolada_crna.jpg",
        "sort": "Obična",
        "type": "Crna",
        "status": "Ima na stanju",
        "availableAmount": 15,
        "deleted": false
      },
      {
        "_id": "1_2",
        "_factoryId": "1",
        "name": "Mini Čokolada Crna",
        "price": 80,
        "weight": 32,
        "description": "Mala tamna čokolada idealna za užinu.",
        "image": "/images/50-Cadbury-Mini-bars.jpg",
        "sort": "Obična",
        "type": "Crna",
        "status": "Ima na stanju",
        "availableAmount": 6,
        "deleted": false
      }
    ],
    "status": "Radi",
    "location": {
      "longitude": 45.28102,
      "latitude": 19.83236,
      "adress": "Igmanska 15, Novi Sad, 21000"
    },
    "rating": 4,
    "deleted": false
  },
  {
    "_id": "2",
    "name": "Cocoa Wonders",
    "workingHours": "7:00 - 18:00",
    "logo": "/images/chocolate_15174343.png",
    "comments": [],
    "chocolates": [],
    "status": "Radi",
    "location": {
      "longitude": 0,
      "latitude": 0,
      "adress": "TestAdresa 25, Negotin, 19300"
    },
    "rating": 0,
    "deleted": false
  },
  {
    "_id": "3",
    "name": "Choco Heaven",
    "workingHours": "7:00 - 18:00",
    "logo": "/images/chocolate_15174343.png",
    "comments": [],
    "chocolates": [],
    "status": "Ne radi",
    "location": {
      "longitude": 0,
      "latitude": 0,
      "adress": "TestAdresa 25, Beograd, 11000"
    },
    "rating": 0,
    "deleted": false
  },
  {
    "_id": "4",
    "name": "Chocolate Paradise",
    "workingHours": "7:00 - 18:00",
    "logo": "/images/chocolate_15174343.png",
    "comments": [],
    "chocolates": [],
    "status": "Radi",
    "location": {
      "longitude": 0,
      "latitude": 0,
      "adress": "TestAdresa 25, Novi Pazar, 36300"
    },
    "rating": 0,
    "deleted": false
  }
]